{
    "JANUARY": 1200,
    "FEBRUARY": 1200,
    "MARCH": 1200,
    "APRIL": 1250,
    "MAY": 1250,
    "JUNE": 1400,
    "JULY": 1400,
    "AUGUST": 1400,
    "SEPTEMBER": 1200,
    "OCTOBER": 1200,
    "NOVEMBER": 1200,
    "DECEMBER": 1400
}